<svg xmlns="http://www.w3.org/2000/svg" width="40" height="40" viewBox="0 0 40 40">
  <g id="Group_375" data-name="Group 375" transform="translate(-288 -1945)">
    <g id="Ellipse_107" data-name="Ellipse 107" transform="translate(288 1945)" fill="none" stroke="#c1a096" stroke-width="2">
      <circle cx="20" cy="20" r="20" stroke="none"/>
      <circle cx="20" cy="20" r="19" fill="none"/>
    </g>
    <path id="Path_1193" data-name="Path 1193" d="M20550.6,1598.686l-6.908,6.908,6.908,6.909" transform="translate(-20240.271 359.65)" fill="none" stroke="#c1a096" stroke-width="2"/>
  </g>
</svg>
